{"count":1128147,"next":"https://support.mozilla.org/api/2/user/?format=json&is_active=true&page=2","previous":null,"results":[{"answer_count":0,"avatar":"https://secure.gravatar.com/avatar/be82522fa4f3c35ccfbe61a38c1b7cee?s=48&d=https%3A//static-media-prod-cdn.sumo.mozilla.net/static/sumo/img/avatar.png","bio":null,"city":null,"country":null,"date_joined":"2018-08-14T23:16:42Z","display_name":null,"facebook":null,"helpfulness":0,"id":1534761,"irc_handle":null,"is_active":false,"last_answer_date":null,"locale":"en-US","mozillians":null,"question_count":1,"solution_count":0,"timezone":"US/Pacific","twitter":null,"username":"jcolafrancesco","website":null},{"answer_count":0,"avatar":"https://secure.gravatar.com/avatar/c1fe85498d74b5c599001baad25aaf63?s=48&d=https%3A//static-media-prod-cdn.sumo.mozilla.net/static/sumo/img/avatar.png","bio":null,"city":null,"country":null,"date_joined":"2018-08-14T23:13:26Z","display_name":null,"facebook":null,"helpfulness":0,"id":1534760,"irc_handle":null,"is_active":false,"last_answer_date":null,"locale":"en-US","mozillians":null,"question_count":0,"solution_count":0,"timezone":"US/Pacific","twitter":null,"username":"Sysadmin_Sandcastles","website":null},{"answer_count":0,"avatar":"https://secure.gravatar.com/avatar/350c75bf5f674d2afc89da68ca20a1d9?s=48&d=https%3A//static-media-prod-cdn.sumo.mozilla.net/static/sumo/img/avatar.png","bio":null,"city":null,"country":null,"date_joined":"2018-08-14T23:13:02Z","display_name":null,"facebook":null,"helpfulness":0,"id":1534759,"irc_handle":null,"is_active":false,"last_answer_date":null,"locale":"en-US","mozillians":null,"question_count":0,"solution_count":0,"timezone":"US/Pacific","twitter":null,"username":"sadiqilya7","website":null},{"answer_count":0,"avatar":"https://secure.gravatar.com/avatar/982b1c046e56f86a3125ee3c37bcab0c?s=48&d=https%3A//static-media-prod-cdn.sumo.mozilla.net/static/sumo/img/avatar.png","bio":null,"city":null,"country":null,"date_joined":"2018-08-14T23:03:41Z","display_name":null,"facebook":null,"helpfulness":0,"id":1534758,"irc_handle":null,"is_active":false,"last_answer_date":null,"locale":"ar","mozillians":null,"question_count":0,"solution_count":0,"timezone":"US/Pacific","twitter":null,"username":"TariQ1409","website":null},{"answer_count":0,"avatar":"https://secure.gravatar.com/avatar/596e6979e285c633395ffd67ae14f496?s=48&d=https%3A//static-media-prod-cdn.sumo.mozilla.net/static/sumo/img/avatar.png","bio":null,"city":null,"country":null,"date_joined":"2018-08-14T22:59:07Z","display_name":null,"facebook":null,"helpfulness":0,"id":1534757,"irc_handle":null,"is_active":false,"last_answer_date":null,"locale":"es","mozillians":null,"question_count":0,"solution_count":0,"timezone":"US/Pacific","twitter":null,"username":"madelin.inastrilla","website":null},{"answer_count":0,"avatar":"https://secure.gravatar.com/avatar/b33c65fd6813e528a7838da8b16cee96?s=48&d=https%3A//static-media-prod-cdn.sumo.mozilla.net/static/sumo/img/avatar.png","bio":"","city":"","country":null,"date_joined":"2018-08-14T22:58:35Z","display_name":"MacGuru","facebook":"","helpfulness":0,"id":1534756,"irc_handle":"","is_active":true,"last_answer_date":null,"locale":"en-US","mozillians":"","question_count":1,"solution_count":0,"timezone":"US/Eastern","twitter":"","username":"macguru","website":""},{"answer_count":0,"avatar":"https://secure.gravatar.com/avatar/c4e0656db134dc78d10a160249556930?s=48&d=https%3A//static-media-prod-cdn.sumo.mozilla.net/static/sumo/img/avatar.png","bio":null,"city":null,"country":null,"date_joined":"2018-08-14T22:54:05Z","display_name":null,"facebook":null,"helpfulness":0,"id":1534755,"irc_handle":null,"is_active":true,"last_answer_date":null,"locale":"en-US","mozillians":null,"question_count":0,"solution_count":0,"timezone":"US/Pacific","twitter":null,"username":"Bella-1","website":null},{"answer_count":0,"avatar":"https://secure.gravatar.com/avatar/617ed962d4562c64a8e5cf4b7ec44924?s=48&d=https%3A//static-media-prod-cdn.sumo.mozilla.net/static/sumo/img/avatar.png","bio":null,"city":null,"country":null,"date_joined":"2018-08-14T22:53:59Z","display_name":null,"facebook":null,"helpfulness":0,"id":1534754,"irc_handle":null,"is_active":false,"last_answer_date":null,"locale":"en-US","mozillians":null,"question_count":1,"solution_count":0,"timezone":"US/Pacific","twitter":null,"username":"Deb1ong","website":null},{"answer_count":0,"avatar":"https://secure.gravatar.com/avatar/b478bd9fa657c49986d345072874bd3a?s=48&d=https%3A//static-media-prod-cdn.sumo.mozilla.net/static/sumo/img/avatar.png","bio":null,"city":null,"country":null,"date_joined":"2018-08-14T22:48:29Z","display_name":null,"facebook":null,"helpfulness":0,"id":1534753,"irc_handle":null,"is_active":true,"last_answer_date":null,"locale":"en-US","mozillians":null,"question_count":0,"solution_count":0,"timezone":"US/Pacific","twitter":null,"username":"Tkris","website":null},{"answer_count":0,"avatar":"https://secure.gravatar.com/avatar/6ea34b980d4e35aa9b7b0771c4ba4732?s=48&d=https%3A//static-media-prod-cdn.sumo.mozilla.net/static/sumo/img/avatar.png","bio":null,"city":null,"country":null,"date_joined":"2018-08-14T22:43:07Z","display_name":null,"facebook":null,"helpfulness":0,"id":1534752,"irc_handle":null,"is_active":true,"last_answer_date":null,"locale":"en-US","mozillians":null,"question_count":0,"solution_count":0,"timezone":"US/Pacific","twitter":null,"username":"mareim","website":null},{"answer_count":0,"avatar":"https://secure.gravatar.com/avatar/2f44b5bcafbaf945badd7c4d68f3e335?s=48&d=https%3A//static-media-prod-cdn.sumo.mozilla.net/static/sumo/img/avatar.png","bio":null,"city":null,"country":null,"date_joined":"2018-08-14T22:38:34Z","display_name":null,"facebook":null,"helpfulness":0,"id":1534751,"irc_handle":null,"is_active":true,"last_answer_date":null,"locale":"en-US","mozillians":null,"question_count":0,"solution_count":0,"timezone":"US/Pacific","twitter":null,"username":"udunlap","website":null},{"answer_count":0,"avatar":"https://secure.gravatar.com/avatar/54125cb0df7e91e11b5ac01f0c555148?s=48&d=https%3A//static-media-prod-cdn.sumo.mozilla.net/static/sumo/img/avatar.png","bio":null,"city":null,"country":null,"date_joined":"2018-08-14T22:35:08Z","display_name":null,"facebook":null,"helpfulness":0,"id":1534750,"irc_handle":null,"is_active":false,"last_answer_date":null,"locale":"en-US","mozillians":null,"question_count":0,"solution_count":0,"timezone":"US/Pacific","twitter":null,"username":"Muhd_farizwan","website":null},{"answer_count":0,"avatar":"https://secure.gravatar.com/avatar/a9123194bdcd3970ed157b893253c7fe?s=48&d=https%3A//static-media-prod-cdn.sumo.mozilla.net/static/sumo/img/avatar.png","bio":null,"city":null,"country":null,"date_joined":"2018-08-14T22:34:34Z","display_name":null,"facebook":null,"helpfulness":0,"id":1534749,"irc_handle":null,"is_active":true,"last_answer_date":null,"locale":"en-US","mozillians":null,"question_count":0,"solution_count":0,"timezone":"US/Pacific","twitter":null,"username":"Muhd_arizwan","website":null},{"answer_count":0,"avatar":"https://secure.gravatar.com/avatar/f7ffa23e9a321d6063030bd5bf8ac06c?s=48&d=https%3A//static-media-prod-cdn.sumo.mozilla.net/static/sumo/img/avatar.png","bio":null,"city":null,"country":null,"date_joined":"2018-08-14T22:30:46Z","display_name":null,"facebook":null,"helpfulness":0,"id":1534748,"irc_handle":null,"is_active":true,"last_answer_date":null,"locale":"es","mozillians":null,"question_count":0,"solution_count":0,"timezone":"US/Pacific","twitter":null,"username":"alexvasquez","website":null},{"answer_count":0,"avatar":"https://secure.gravatar.com/avatar/451e1c0bcde2e32caa59904c2acac91d?s=48&d=https%3A//static-media-prod-cdn.sumo.mozilla.net/static/sumo/img/avatar.png","bio":null,"city":null,"country":null,"date_joined":"2018-08-14T22:25:10Z","display_name":null,"facebook":null,"helpfulness":0,"id":1534747,"irc_handle":null,"is_active":true,"last_answer_date":null,"locale":"en-US","mozillians":null,"question_count":0,"solution_count":0,"timezone":"US/Pacific","twitter":null,"username":"Scorpion74","website":null},{"answer_count":0,"avatar":"https://secure.gravatar.com/avatar/6d730521037ed8eae5e5b9b546351ed9?s=48&d=https%3A//static-media-prod-cdn.sumo.mozilla.net/static/sumo/img/avatar.png","bio":null,"city":null,"country":null,"date_joined":"2018-08-14T22:23:30Z","display_name":null,"facebook":null,"helpfulness":0,"id":1534746,"irc_handle":null,"is_active":true,"last_answer_date":null,"locale":"tr","mozillians":null,"question_count":0,"solution_count":0,"timezone":"US/Pacific","twitter":null,"username":"nctyurumez","website":null},{"answer_count":0,"avatar":"https://secure.gravatar.com/avatar/9a0a71578aa5a869eaa1a0ad42377f8b?s=48&d=https%3A//static-media-prod-cdn.sumo.mozilla.net/static/sumo/img/avatar.png","bio":null,"city":null,"country":null,"date_joined":"2018-08-14T22:23:23Z","display_name":null,"facebook":null,"helpfulness":0,"id":1534745,"irc_handle":null,"is_active":true,"last_answer_date":null,"locale":"en-US","mozillians":null,"question_count":1,"solution_count":0,"timezone":"US/Pacific","twitter":null,"username":"LesterN","website":null},{"answer_count":0,"avatar":"https://secure.gravatar.com/avatar/0875d6bd3019db6f470516541b9c6b30?s=48&d=https%3A//static-media-prod-cdn.sumo.mozilla.net/static/sumo/img/avatar.png","bio":null,"city":null,"country":null,"date_joined":"2018-08-14T22:22:03Z","display_name":null,"facebook":null,"helpfulness":0,"id":1534744,"irc_handle":null,"is_active":true,"last_answer_date":null,"locale":"en-US","mozillians":null,"question_count":1,"solution_count":0,"timezone":"US/Pacific","twitter":null,"username":"FL_Computer_Guy","website":null},{"answer_count":0,"avatar":"https://secure.gravatar.com/avatar/4b439d21f14b9b0cc0f1340630a484c4?s=48&d=https%3A//static-media-prod-cdn.sumo.mozilla.net/static/sumo/img/avatar.png","bio":null,"city":null,"country":null,"date_joined":"2018-08-14T22:18:52Z","display_name":null,"facebook":null,"helpfulness":0,"id":1534743,"irc_handle":null,"is_active":true,"last_answer_date":null,"locale":"en-US","mozillians":null,"question_count":0,"solution_count":0,"timezone":"US/Pacific","twitter":null,"username":"dmh0911","website":null},{"answer_count":0,"avatar":"https://secure.gravatar.com/avatar/97d834dbaebd7d58aac2171462c538d1?s=48&d=https%3A//static-media-prod-cdn.sumo.mozilla.net/static/sumo/img/avatar.png","bio":null,"city":null,"country":null,"date_joined":"2018-08-14T22:15:06Z","display_name":null,"facebook":null,"helpfulness":0,"id":1534742,"irc_handle":null,"is_active":false,"last_answer_date":null,"locale":"en-US","mozillians":null,"question_count":0,"solution_count":0,"timezone":"US/Pacific","twitter":null,"username":"kevcoll1978","website":null}]}